import useful;
import geometry;
size(10cm);

defpoint("A", (0, 2.3), N);
defpoint("B", (-1, 0), W);
defpoint("C", (3, 0), E);
triangle T = triangle(A, B, C);
draw(T);
point D = intersectionpoint(line(B, C), altitude(T.vertex(1)));
draw(A -- D);
label("$D$", D, SE);
draw(orth(D, A, B));
circle Cr;
Cr.C = (B + C)/2;
Cr.r = length(C - B)/2;
draw(Cr);
point[] pts = intersectionpoints(Cr, line(D, A));
point M1 = pts[0];
point M = pts[1];
label("$M$", M, SE);
label("$M_1$", M1, NE);
draw(D -- M1, dashed);
point K = intersectionpoint(line(A, B), altitude(T.vertex(3)));
draw("$K$", K, NW);
draw(C -- K);
draw(orth(K, C, B, scale = 0.06));
point H = intersectionpoint(line(C, K), line(A, D));
label("$H$", H, 2S + E);
