import useful;
import geometry;
import geometry_quadrilateral;
import graph;
size(10cm);

quadrilateral tr = trapezium(pi/2, acos(5/13), h = 12/9);
draw(tr);
unravel tr;
defpoint("M", (A + B)/2, W);
defpoint("N", (C + D)/2, E);
draw(D -- M -- N -- cycle);
markangle(M, D, A);
markangle(N, D, M);
markangle(D, M, N);
draw(segment(A, B), marker = StickIntervalMarker(n = 1));
draw(segment(M, N), marker = StickIntervalMarker(n = 2, i = 1));
draw(segment(C, N), marker = StickIntervalMarker(n = 2, i = 1));
draw(segment(D, N), marker = StickIntervalMarker(n = 2, i = 1));
defaltitude("H", triangle(A, C, D).vertex(2));
markrightangle(B, A, D);
