import useful;
import geometry;
import graph;
size(10cm);

defpoint("A", (0, 0), W);
defpoint("B", (2, 2), N);
defpoint("C", (6, 3), E);
defpoint("D", (2, -3), S);
draw(A -- B -- C -- D -- cycle);
defpoint("E", (A + B)/2, N + 2W);
defpoint("F", (B + C)/2, N);
defpoint("G", (C + D)/2, 4plain.E);
defpoint("K", (A + D)/2, SW);
draw(E -- F -- G -- K -- cycle, dashed);
draw(A -- C);
draw(B -- D);
draw(segment(A, B), marker = StickIntervalMarker(n = 2));
draw(segment(A, D), marker = StickIntervalMarker(n = 1));
draw(segment(B, C), marker = TildeIntervalMarker(n = 1));
draw(segment(D, C), marker = CrossIntervalMarker());
